[
    {
        "name": "Sidebar.Instructors",
        "url": "/instructors",
        "icon": "fa fa-bullhorn",
        "index": 0
    },
    {
        "name": "Sidebar.Students",
        "url": "/students",
        "icon": "fa fa-graduation-cap",
        "index": 10
    },
    {
        "name": "Sidebar.Teaching",
        "url":"javascript:void(0)",
        "icon": "fa fa-history",
        "index": 20,
        "children": [
            {
                "name": "Sidebar.Courses",
                "url": "/courses",
                "icon": "fa fa-none",
                "index": 0
            },
            {
                "name": "Sidebar.Classes",
                "url": "/courses/classes",
                "icon": "fa fa-none",
                "index": 5
            },
            {
                "name": "Sidebar.Exams",
                "url": "/courses/exams",
                "icon": "fa fa-none",
                "index": 10
            }
        ]
    },
    {
        "name": "Sidebar.StudyPrograms",
        "url": "/study-programs",
        "icon": "fa fa-university",
        "index": 30
    },
    {
        "name": "Sidebar.Theses",
        "url": "/theses",
        "icon": "fa fa-briefcase",
        "index": 40
    },
    {
        "name": "Sidebar.Requests",
        "url": "/requests",
        "icon": "fa fa-envelope",
        "index": 50
    },
    {
        "name": "Sidebar.More",
        "url":"javascript:void(0)",
        "class": "open",
        "icon": "fa fa-archive",
        "index": 60,
        "children": [
            {
                "name": "Sidebar.Graduation",
                "url": "/courses",
                "icon": "fa fa-none",
                "index": 0
            },
            {
                "name": "Sidebar.Scholarships",
                "url": "/courses/classes",
                "icon": "fa fa-none",
                "index": 5
            },
            {
                "name": "Sidebar.Practices",
                "url": "/courses/exams",
                "icon": "fa fa-none",
                "index": 10
            },
            {
                "name": "Sidebar.Statistics",
                "url": "/courses/exams",
                "icon": "fa fa-none",
                "index": 20
            }
        ]
    }
]
